Blog - Data Science
…
另一个将数据传入ggplot的方法是使用管道。

delays<-flights%>%
    group_by(dest)%>%
    summarize(count=n(),
            dist=mean(distance,na.rm=TRUE),
            delay=mean(arr_delay,na.rm=TRUE)
             )%>%
    dplyr::filter(count>20,dest !="HNL")
print(delays)

# A tibble: 96 × 4
   dest  count  dist delay
   <chr> <int> <dbl> <dbl>
 1 ABQ     254 1826   4.38
 2 ACK     265  199   4.85
 3 ALB     439  143  14.4 
 4 ATL   17215  757. 11.3 
 5 AUS    2439 1514.  6.02
 6 AVL     275  584.  8.00
 7 BDL     443  116   7.05
 8 BGR     375  378   8.03
 9 BHM     297  866. 16.9 
10 BNA    6333  758. 11.8 
# … with 86 more rows
…
